<?xml version="1.0" encoding="UTF-8" standalone="no"?>
<!DOCTYPE svg PUBLIC "-//W3C//DTD SVG 1.1//EN"
 "http://www.w3.org/Graphics/SVG/1.1/DTD/svg11.dtd">
<!-- Generated by graphviz version 2.42.3 (20191010.1750)
 -->
<!-- Title: %3 Pages: 1 -->
<svg width="226pt" height="322pt"
 viewBox="0.00 0.00 226.00 322.00" xmlns="http://www.w3.org/2000/svg" xmlns:xlink="http://www.w3.org/1999/xlink">
<g id="graph0" class="graph" transform="scale(1 1) rotate(0) translate(4 318)">
<title>%3</title>
<polygon fill="white" stroke="transparent" points="-4,4 -4,-318 222,-318 222,4 -4,4"/>
<!-- input -->
<g id="node1" class="node">
<title>input</title>
<polygon fill="#ffffbf" stroke="transparent" points="81.5,-19 81.5,-34 96.5,-34 96.5,-19 81.5,-19"/>
<polygon fill="none" stroke="black" points="81.5,-19 81.5,-34 96.5,-34 96.5,-19 81.5,-19"/>
<polygon fill="#ffffbf" stroke="transparent" points="96.5,-19 96.5,-34 111.5,-34 111.5,-19 96.5,-19"/>
<polygon fill="none" stroke="black" points="96.5,-19 96.5,-34 111.5,-34 111.5,-19 96.5,-19"/>
<polygon fill="#ffffbf" stroke="transparent" points="111.5,-19 111.5,-34 126.5,-34 126.5,-19 111.5,-19"/>
<polygon fill="none" stroke="black" points="111.5,-19 111.5,-34 126.5,-34 126.5,-19 111.5,-19"/>
<polygon fill="#ffffbf" stroke="transparent" points="126.5,-19 126.5,-34 141.5,-34 141.5,-19 126.5,-19"/>
<polygon fill="none" stroke="black" points="126.5,-19 126.5,-34 141.5,-34 141.5,-19 126.5,-19"/>
<polygon fill="#ffffbf" stroke="transparent" points="141.5,-19 141.5,-34 156.5,-34 156.5,-19 141.5,-19"/>
<polygon fill="none" stroke="black" points="141.5,-19 141.5,-34 156.5,-34 156.5,-19 141.5,-19"/>
<text text-anchor="start" x="108" y="-9" font-family="Times,serif" font-size="10.00">input</text>
</g>
<!-- w_1 -->
<g id="node2" class="node">
<title>w_1</title>
<polygon fill="#fc8d59" stroke="transparent" points="31.5,-65.5 31.5,-80.5 46.5,-80.5 46.5,-65.5 31.5,-65.5"/>
<polygon fill="none" stroke="black" points="31.5,-65.5 31.5,-80.5 46.5,-80.5 46.5,-65.5 31.5,-65.5"/>
<polygon fill="#fc8d59" stroke="transparent" points="46.5,-65.5 46.5,-80.5 61.5,-80.5 61.5,-65.5 46.5,-65.5"/>
<polygon fill="none" stroke="black" points="46.5,-65.5 46.5,-80.5 61.5,-80.5 61.5,-65.5 46.5,-65.5"/>
<polygon fill="#fc8d59" stroke="transparent" points="61.5,-65.5 61.5,-80.5 76.5,-80.5 76.5,-65.5 61.5,-65.5"/>
<polygon fill="none" stroke="black" points="61.5,-65.5 61.5,-80.5 76.5,-80.5 76.5,-65.5 61.5,-65.5"/>
<polygon fill="#fc8d59" stroke="transparent" points="76.5,-65.5 76.5,-80.5 91.5,-80.5 91.5,-65.5 76.5,-65.5"/>
<polygon fill="none" stroke="black" points="76.5,-65.5 76.5,-80.5 91.5,-80.5 91.5,-65.5 76.5,-65.5"/>
<polygon fill="#fc8d59" stroke="transparent" points="91.5,-65.5 91.5,-80.5 106.5,-80.5 106.5,-65.5 91.5,-65.5"/>
<polygon fill="none" stroke="black" points="91.5,-65.5 91.5,-80.5 106.5,-80.5 106.5,-65.5 91.5,-65.5"/>
</g>
<!-- input&#45;&gt;w_1 -->
<g id="edge1" class="edge">
<title>input&#45;&gt;w_1</title>
<path fill="none" stroke="black" stroke-width="0.75" d="M101.29,-38.07C95.02,-44.65 88.03,-52 82.11,-58.21"/>
<polygon fill="black" stroke="black" stroke-width="0.75" points="80.77,-57.08 78.59,-61.91 83.3,-59.5 80.77,-57.08"/>
</g>
<!-- b_1 -->
<g id="node5" class="node">
<title>b_1</title>
<polygon fill="#91bfdb" stroke="transparent" points="132.5,-112.5 132.5,-127.5 147.5,-127.5 147.5,-112.5 132.5,-112.5"/>
<polygon fill="none" stroke="black" points="132.5,-112.5 132.5,-127.5 147.5,-127.5 147.5,-112.5 132.5,-112.5"/>
<polygon fill="#91bfdb" stroke="transparent" points="147.5,-112.5 147.5,-127.5 162.5,-127.5 162.5,-112.5 147.5,-112.5"/>
<polygon fill="none" stroke="black" points="147.5,-112.5 147.5,-127.5 162.5,-127.5 162.5,-112.5 147.5,-112.5"/>
<polygon fill="#91bfdb" stroke="transparent" points="162.5,-112.5 162.5,-127.5 177.5,-127.5 177.5,-112.5 162.5,-112.5"/>
<polygon fill="none" stroke="black" points="162.5,-112.5 162.5,-127.5 177.5,-127.5 177.5,-112.5 162.5,-112.5"/>
<polygon fill="#91bfdb" stroke="transparent" points="177.5,-112.5 177.5,-127.5 192.5,-127.5 192.5,-112.5 177.5,-112.5"/>
<polygon fill="none" stroke="black" points="177.5,-112.5 177.5,-127.5 192.5,-127.5 192.5,-112.5 177.5,-112.5"/>
<polygon fill="#91bfdb" stroke="transparent" points="192.5,-112.5 192.5,-127.5 207.5,-127.5 207.5,-112.5 192.5,-112.5"/>
<polygon fill="none" stroke="black" points="192.5,-112.5 192.5,-127.5 207.5,-127.5 207.5,-112.5 192.5,-112.5"/>
</g>
<!-- input&#45;&gt;b_1 -->
<g id="edge2" class="edge">
<title>input&#45;&gt;b_1</title>
<path fill="none" stroke="black" stroke-width="0.75" d="M127.85,-38.25C137.53,-57.12 152.47,-86.27 161.58,-104.04"/>
<polygon fill="black" stroke="black" stroke-width="0.75" points="160.14,-105.08 163.98,-108.73 163.26,-103.49 160.14,-105.08"/>
</g>
<!-- w_i -->
<g id="node3" class="node">
<title>w_i</title>
<text text-anchor="middle" x="58.5" y="-116.8" font-family="Times,serif" font-size="14.00">...</text>
</g>
<!-- w_1&#45;&gt;w_i -->
<g id="edge6" class="edge">
<title>w_1&#45;&gt;w_i</title>
<path fill="none" stroke="black" stroke-width="0.75" d="M66.08,-85.39C64.85,-90.92 63.34,-97.74 61.99,-103.82"/>
<polygon fill="black" stroke="black" stroke-width="0.75" points="60.27,-103.45 60.9,-108.71 63.69,-104.21 60.27,-103.45"/>
</g>
<!-- w_1&#45;&gt;b_1 -->
<g id="edge3" class="edge">
<title>w_1&#45;&gt;b_1</title>
<path fill="none" stroke="black" stroke-width="0.75" d="M92.18,-85.05C106.76,-91.55 125.55,-99.92 140.96,-106.78"/>
<polygon fill="black" stroke="black" stroke-width="0.75" points="140.34,-108.42 145.62,-108.86 141.76,-105.23 140.34,-108.42"/>
</g>
<!-- w_o -->
<g id="node4" class="node">
<title>w_o</title>
<text text-anchor="start" x="29.5" y="-239.5" font-family="Times,serif" font-size="10.00">softmax</text>
<polygon fill="#fc8d59" stroke="transparent" points="8.5,-221.5 8.5,-236.5 23.5,-236.5 23.5,-221.5 8.5,-221.5"/>
<polygon fill="none" stroke="black" points="8.5,-221.5 8.5,-236.5 23.5,-236.5 23.5,-221.5 8.5,-221.5"/>
<polygon fill="#fc8d59" stroke="transparent" points="23.5,-221.5 23.5,-236.5 38.5,-236.5 38.5,-221.5 23.5,-221.5"/>
<polygon fill="none" stroke="black" points="23.5,-221.5 23.5,-236.5 38.5,-236.5 38.5,-221.5 23.5,-221.5"/>
<polygon fill="#fc8d59" stroke="transparent" points="38.5,-221.5 38.5,-236.5 53.5,-236.5 53.5,-221.5 38.5,-221.5"/>
<polygon fill="none" stroke="black" points="38.5,-221.5 38.5,-236.5 53.5,-236.5 53.5,-221.5 38.5,-221.5"/>
<polygon fill="#fc8d59" stroke="transparent" points="53.5,-221.5 53.5,-236.5 68.5,-236.5 68.5,-221.5 53.5,-221.5"/>
<polygon fill="none" stroke="black" points="53.5,-221.5 53.5,-236.5 68.5,-236.5 68.5,-221.5 53.5,-221.5"/>
<polygon fill="#fc8d59" stroke="transparent" points="68.5,-221.5 68.5,-236.5 83.5,-236.5 83.5,-221.5 68.5,-221.5"/>
<polygon fill="none" stroke="black" points="68.5,-221.5 68.5,-236.5 83.5,-236.5 83.5,-221.5 68.5,-221.5"/>
<text text-anchor="start" x="32" y="-211.5" font-family="Times,serif" font-size="10.00">(_, |K|)</text>
</g>
<!-- w_i&#45;&gt;w_o -->
<g id="edge7" class="edge">
<title>w_i&#45;&gt;w_o</title>
<path fill="none" stroke="black" stroke-width="0.75" d="M57.16,-132.34C55.26,-147.67 51.72,-176.22 49.04,-197.88"/>
<polygon fill="black" stroke="black" stroke-width="0.75" points="47.29,-197.77 48.42,-202.95 50.77,-198.2 47.29,-197.77"/>
</g>
<!-- output -->
<g id="node8" class="node">
<title>output</title>
<polygon fill="#fc8d59" stroke="transparent" points="33.5,-295 33.5,-310 48.5,-310 48.5,-295 33.5,-295"/>
<polygon fill="none" stroke="black" points="33.5,-295 33.5,-310 48.5,-310 48.5,-295 33.5,-295"/>
<polygon fill="#fc8d59" stroke="transparent" points="48.5,-295 48.5,-310 63.5,-310 63.5,-295 48.5,-295"/>
<polygon fill="none" stroke="black" points="48.5,-295 48.5,-310 63.5,-310 63.5,-295 48.5,-295"/>
<polygon fill="#fc8d59" stroke="transparent" points="63.5,-295 63.5,-310 78.5,-310 78.5,-295 63.5,-295"/>
<polygon fill="none" stroke="black" points="63.5,-295 63.5,-310 78.5,-310 78.5,-295 63.5,-295"/>
<polygon fill="#fc8d59" stroke="transparent" points="78.5,-295 78.5,-310 93.5,-310 93.5,-295 78.5,-295"/>
<polygon fill="none" stroke="black" points="78.5,-295 78.5,-310 93.5,-310 93.5,-295 78.5,-295"/>
<polygon fill="#fc8d59" stroke="transparent" points="93.5,-295 93.5,-310 108.5,-310 108.5,-295 93.5,-295"/>
<polygon fill="none" stroke="black" points="93.5,-295 93.5,-310 108.5,-310 108.5,-295 93.5,-295"/>
<polygon fill="#91bfdb" stroke="transparent" points="108.5,-295 108.5,-310 123.5,-310 123.5,-295 108.5,-295"/>
<polygon fill="none" stroke="black" points="108.5,-295 108.5,-310 123.5,-310 123.5,-295 108.5,-295"/>
<polygon fill="#91bfdb" stroke="transparent" points="123.5,-295 123.5,-310 138.5,-310 138.5,-295 123.5,-295"/>
<polygon fill="none" stroke="black" points="123.5,-295 123.5,-310 138.5,-310 138.5,-295 123.5,-295"/>
<polygon fill="#91bfdb" stroke="transparent" points="138.5,-295 138.5,-310 153.5,-310 153.5,-295 138.5,-295"/>
<polygon fill="none" stroke="black" points="138.5,-295 138.5,-310 153.5,-310 153.5,-295 138.5,-295"/>
<polygon fill="#91bfdb" stroke="transparent" points="153.5,-295 153.5,-310 168.5,-310 168.5,-295 153.5,-295"/>
<polygon fill="none" stroke="black" points="153.5,-295 153.5,-310 168.5,-310 168.5,-295 153.5,-295"/>
<polygon fill="#91bfdb" stroke="transparent" points="168.5,-295 168.5,-310 183.5,-310 183.5,-295 168.5,-295"/>
<polygon fill="none" stroke="black" points="168.5,-295 168.5,-310 183.5,-310 183.5,-295 168.5,-295"/>
<text text-anchor="start" x="90.5" y="-285" font-family="Times,serif" font-size="10.00">(_, 2·|K|)</text>
</g>
<!-- w_o&#45;&gt;output -->
<g id="edge8" class="edge">
<title>w_o&#45;&gt;output</title>
<path fill="none" stroke="black" stroke-width="0.75" d="M68.24,-252.15C74.43,-258.58 81.11,-265.52 87.21,-271.87"/>
<polygon fill="black" stroke="black" stroke-width="0.75" points="86.2,-273.34 90.93,-275.73 88.73,-270.92 86.2,-273.34"/>
</g>
<!-- b_i -->
<g id="node6" class="node">
<title>b_i</title>
<text text-anchor="middle" x="170.5" y="-163.8" font-family="Times,serif" font-size="14.00">...</text>
</g>
<!-- b_1&#45;&gt;b_i -->
<g id="edge4" class="edge">
<title>b_1&#45;&gt;b_i</title>
<path fill="none" stroke="black" stroke-width="0.75" d="M169.74,-132.39C169.86,-137.81 170.01,-144.46 170.14,-150.45"/>
<polygon fill="black" stroke="black" stroke-width="0.75" points="168.4,-150.75 170.26,-155.71 171.9,-150.67 168.4,-150.75"/>
</g>
<!-- b_o -->
<g id="node7" class="node">
<title>b_o</title>
<text text-anchor="start" x="156.5" y="-239.5" font-family="Times,serif" font-size="10.00">softplus</text>
<polygon fill="#91bfdb" stroke="transparent" points="135.5,-221.5 135.5,-236.5 150.5,-236.5 150.5,-221.5 135.5,-221.5"/>
<polygon fill="none" stroke="black" points="135.5,-221.5 135.5,-236.5 150.5,-236.5 150.5,-221.5 135.5,-221.5"/>
<polygon fill="#91bfdb" stroke="transparent" points="150.5,-221.5 150.5,-236.5 165.5,-236.5 165.5,-221.5 150.5,-221.5"/>
<polygon fill="none" stroke="black" points="150.5,-221.5 150.5,-236.5 165.5,-236.5 165.5,-221.5 150.5,-221.5"/>
<polygon fill="#91bfdb" stroke="transparent" points="165.5,-221.5 165.5,-236.5 180.5,-236.5 180.5,-221.5 165.5,-221.5"/>
<polygon fill="none" stroke="black" points="165.5,-221.5 165.5,-236.5 180.5,-236.5 180.5,-221.5 165.5,-221.5"/>
<polygon fill="#91bfdb" stroke="transparent" points="180.5,-221.5 180.5,-236.5 195.5,-236.5 195.5,-221.5 180.5,-221.5"/>
<polygon fill="none" stroke="black" points="180.5,-221.5 180.5,-236.5 195.5,-236.5 195.5,-221.5 180.5,-221.5"/>
<polygon fill="#91bfdb" stroke="transparent" points="195.5,-221.5 195.5,-236.5 210.5,-236.5 210.5,-221.5 195.5,-221.5"/>
<polygon fill="none" stroke="black" points="195.5,-221.5 195.5,-236.5 210.5,-236.5 210.5,-221.5 195.5,-221.5"/>
<text text-anchor="start" x="159" y="-211.5" font-family="Times,serif" font-size="10.00">(_, |K|)</text>
</g>
<!-- b_i&#45;&gt;b_o -->
<g id="edge5" class="edge">
<title>b_i&#45;&gt;b_o</title>
<path fill="none" stroke="black" stroke-width="0.75" d="M170.87,-179.14C171.05,-184.45 171.28,-191.17 171.51,-197.86"/>
<polygon fill="black" stroke="black" stroke-width="0.75" points="169.77,-198.01 171.69,-202.95 173.26,-197.89 169.77,-198.01"/>
</g>
<!-- b_o&#45;&gt;output -->
<g id="edge9" class="edge">
<title>b_o&#45;&gt;output</title>
<path fill="none" stroke="black" stroke-width="0.75" d="M149.39,-252.15C143.11,-258.58 136.33,-265.52 130.12,-271.87"/>
<polygon fill="black" stroke="black" stroke-width="0.75" points="128.59,-270.93 126.35,-275.73 131.09,-273.38 128.59,-270.93"/>
</g>
</g>
</svg>
